﻿
17:27:53 [Error] () An unknown exception has been occurred when saving the billing file.
System.FormatException: The input is not a valid Base-64 string as it contains a non-base 64 character, more than two padding characters, or an illegal character among the padding characters.
   at System.Convert.FromBase64CharPtr(Char* inputPtr, Int32 inputLength)
   at System.Convert.FromBase64String(String s)
   at SCM.FileManagement.Microservice.Controllers.FileHelperController.SaveBillingFile(FileSaveModel model, CancellationToken cancellationToken) in E:\Workspace\Asp.Net\scm\SCM.FileManagement\SCM.FileManagement.Microservice\Controllers\FileHelperController.cs:line 35

19:10:39 [Error] () An unknown exception has been occurred when saving the billing file.
System.FormatException: The input is not a valid Base-64 string as it contains a non-base 64 character, more than two padding characters, or an illegal character among the padding characters.
   at System.Convert.FromBase64CharPtr(Char* inputPtr, Int32 inputLength)
   at System.Convert.FromBase64String(String s)
   at SCM.FileManagement.Microservice.Controllers.FileHelperController.SaveBillingFile(FileSaveModel model, CancellationToken cancellationToken) in E:\Workspace\Asp.Net\scm\SCM.FileManagement\SCM.FileManagement.Microservice\Controllers\FileHelperController.cs:line 38

19:12:05 [Error] () An unknown exception has been occurred when saving the billing file.
System.FormatException: The input is not a valid Base-64 string as it contains a non-base 64 character, more than two padding characters, or an illegal character among the padding characters.
   at System.Convert.FromBase64CharPtr(Char* inputPtr, Int32 inputLength)
   at System.Convert.FromBase64String(String s)
   at SCM.FileManagement.Microservice.Controllers.FileHelperController.SaveBillingFile(FileSaveModel model, CancellationToken cancellationToken) in E:\Workspace\Asp.Net\scm\SCM.FileManagement\SCM.FileManagement.Microservice\Controllers\FileHelperController.cs:line 38

19:17:24 [Error] () An unknown exception has been occurred when saving the billing file.
System.FormatException: The input is not a valid Base-64 string as it contains a non-base 64 character, more than two padding characters, or an illegal character among the padding characters.
   at System.Convert.FromBase64CharPtr(Char* inputPtr, Int32 inputLength)
   at System.Convert.FromBase64String(String s)
   at SCM.FileManagement.Microservice.Controllers.FileHelperController.SaveBillingFile(FileSaveModel model, CancellationToken cancellationToken) in E:\Workspace\Asp.Net\scm\SCM.FileManagement\SCM.FileManagement.Microservice\Controllers\FileHelperController.cs:line 38

12:39:02 [Error] () An unknown exception has been occurred when saving the billing file.
System.FormatException: The input is not a valid Base-64 string as it contains a non-base 64 character, more than two padding characters, or an illegal character among the padding characters.
   at System.Convert.FromBase64CharPtr(Char* inputPtr, Int32 inputLength)
   at System.Convert.FromBase64String(String s)
   at SCM.FileManagement.Microservice.Controllers.FileHelperController.SaveBillingFile(FileSaveModel model, CancellationToken cancellationToken) in E:\Workspace\Asp.Net\scm\SCM.FileManagement\SCM.FileManagement.Microservice\Controllers\FileHelperController.cs:line 39

12:41:39 [Error] () An unknown exception has been occurred when saving the billing file.
System.FormatException: The input is not a valid Base-64 string as it contains a non-base 64 character, more than two padding characters, or an illegal character among the padding characters.
   at System.Convert.FromBase64CharPtr(Char* inputPtr, Int32 inputLength)
   at System.Convert.FromBase64String(String s)
   at SCM.FileManagement.Microservice.Controllers.FileHelperController.SaveBillingFile(FileSaveModel model, CancellationToken cancellationToken) in E:\Workspace\Asp.Net\scm\SCM.FileManagement\SCM.FileManagement.Microservice\Controllers\FileHelperController.cs:line 39

12:43:01 [Error] () An unknown exception has been occurred when saving the billing file.
System.FormatException: The input is not a valid Base-64 string as it contains a non-base 64 character, more than two padding characters, or an illegal character among the padding characters.
   at System.Convert.FromBase64CharPtr(Char* inputPtr, Int32 inputLength)
   at System.Convert.FromBase64String(String s)
   at SCM.FileManagement.Microservice.Controllers.FileHelperController.SaveBillingFile(FileSaveModel model, CancellationToken cancellationToken) in E:\Workspace\Asp.Net\scm\SCM.FileManagement\SCM.FileManagement.Microservice\Controllers\FileHelperController.cs:line 39

12:45:26 [Error] () An unknown exception has been occurred when saving the billing file.
System.FormatException: The input is not a valid Base-64 string as it contains a non-base 64 character, more than two padding characters, or an illegal character among the padding characters.
   at System.Convert.FromBase64CharPtr(Char* inputPtr, Int32 inputLength)
   at System.Convert.FromBase64String(String s)
   at SCM.FileManagement.Microservice.Controllers.FileHelperController.SaveBillingFile(FileSaveModel model, CancellationToken cancellationToken) in E:\Workspace\Asp.Net\scm\SCM.FileManagement\SCM.FileManagement.Microservice\Controllers\FileHelperController.cs:line 39
